module bitbucket.org/fasales/fasthttp-modified

go 1.11

require (
	github.com/klauspost/compress v1.8.2
	github.com/klauspost/cpuid v1.2.1 // indirect
	github.com/valyala/bytebufferpool v1.0.0
	github.com/valyala/tcplisten v0.0.0-20161114210144-ceec8f93295a
	golang.org/x/net v0.0.0-20190827160401-ba9fcec4b297
)
